{
  "formatVersion": 1,
  "database": {
    "version": 2,
    "identityHash": "32074c0dc15c595f23d14446644ffc8d",
    "entities": [
      {
        "tableName": "User",
        "createSql": "CREATE TABLE IF NOT EXISTS `${TABLE_NAME}` (`id` TEXT NOT NULL, `userId` TEXT NOT NULL, `userName` TEXT, `created` TEXT, `studentId` TEXT, `studentBehaviorId` TEXT, `modified` TEXT, `roleId` TEXT, `schoolId` TEXT, `mainAccountId` TEXT, `firstName` TEXT, `fatherName` TEXT, `grandFatherName` TEXT, `familyName` TEXT, `nameAr` TEXT, `nameEng` TEXT, `guardianId` TEXT, `fatherMobile` TEXT, `fatherNumber` TEXT, `motherMobile` TEXT, `dateOfBirth` TEXT, `placeOfBirth` TEXT, `placeOfBirthAr` TEXT, `address` TEXT, `phoneNumber` TEXT, `mobileNumber` TEXT, `emergencyNumberOne` TEXT, `emergencyNumberTwo` TEXT, `email` TEXT, `verifiedEmail` INTEGER NOT NULL, `emailTwo` TEXT, `livesWithParents` INTEGER, `siblingsCount` TEXT, `nationalityId` TEXT, `dobHijri` TEXT, `photoFileName` TEXT, `themeId` TEXT, `deleted` INTEGER, `statusId` TEXT, `lang` TEXT, `dateFormat` TEXT, `loginName` TEXT, `googleLoginToken` TEXT, `number` TEXT, `specialization` TEXT, `isValidNumber` INTEGER, `passportNumber` TEXT, `registrationNumber` TEXT, `oldSchoolId` TEXT, `gender` TEXT, `blockReports` INTEGER, `mawhibaId` TEXT, `pioneerId` TEXT, `cognitivePersonId` TEXT, `bio` TEXT, `facebookAccount` TEXT, `twitterAccount` TEXT, `googlePlusAccount` TEXT, `instagramAccount` TEXT, `linkedinAccount` TEXT, `mobileNumberTwo` TEXT, `educationalAdministration` TEXT, `externalSchool` TEXT, `tmpSectionId` TEXT, `levelPioneerId` TEXT, `sectionPioneerId` TEXT, `parentPioneerId` TEXT, `thumbDone` TEXT, `androidToken` TEXT, `iosToken` TEXT, `restrictLogin` INTEGER, `mawhibaProgramId` TEXT, `lastActivityDate` TEXT, `fakeData` INTEGER, `duplicated` INTEGER, `scholarshipNumber` TEXT, `allowNotification` INTEGER, `placeOfBirthCity` TEXT, `placeOfBirthCityOther` TEXT, `fatherWorkPlace` TEXT, `motherWorkPlace` TEXT, `fatherQualifications` TEXT, `motherQualifications` TEXT, `motherName` TEXT, `isUniversityAssociate` INTEGER, `hasSiblingsInSchools` INTEGER, `siblingNameInSchools` TEXT, `siblingLevelId` TEXT, `admissionLetter` TEXT, `guardianUniversityNumber` TEXT, `guardianUniversityAssociation` TEXT, `walkThrough` INTEGER, `insertionMethod` TEXT, `residenceCountry` TEXT, `motherNumber` TEXT, `erpUserId` TEXT, `backToRefererPage` INTEGER, `msGraphToken` TEXT, `allowThemeChange` TEXT, `acfCheck` INTEGER, `subRole` TEXT, `applicantDegree` TEXT, `applicantRecommendations` TEXT, `applicantGrade` TEXT, `applicantNotes` TEXT, `applicantRepaid` TEXT, `fullName` TEXT, `schoolName` TEXT, `timezone` TEXT, `imageUrl` TEXT, `image` TEXT, `profilePicture` TEXT, `absenceStatus` TEXT, `name` TEXT, `selected` INTEGER NOT NULL, `student_level_id` TEXT, `student_level_studentId` TEXT, `student_level_yearId` TEXT, `student_level_levelId` TEXT, `student_level_status` TEXT, `student_level_created` TEXT, `student_level_modified` TEXT, `score_info_userScore` TEXT, `score_info_currentCardTitle` TEXT, `score_info_currentCardColor` TEXT, `score_info_userRatio` REAL, `score_info_classIndex` INTEGER, `score_info_classTitle` TEXT, `score_info_classColor` TEXT, `score_info_uiScore` INTEGER, `current_semester_yearId` TEXT, `current_semester_semesterId` TEXT, PRIMARY KEY(`id`))",
        "fields": [
          {
            "fieldPath": "id",
            "columnName": "id",
            "affinity": "TEXT",
            "notNull": true
          },
          {
            "fieldPath": "userId",
            "columnName": "userId",
            "affinity": "TEXT",
            "notNull": true
          },
          {
            "fieldPath": "userName",
            "columnName": "userName",
            "affinity": "TEXT",
            "notNull": false
          },
          {
            "fieldPath": "created",
            "columnName": "created",
            "affinity": "TEXT",
            "notNull": false
          },
          {
            "fieldPath": "studentId",
            "columnName": "studentId",
            "affinity": "TEXT",
            "notNull": false
          },
          {
            "fieldPath": "studentBehaviorId",
            "columnName": "studentBehaviorId",
            "affinity": "TEXT",
            "notNull": false
          },
          {
            "fieldPath": "modified",
            "columnName": "modified",
            "affinity": "TEXT",
            "notNull": false
          },
          {
            "fieldPath": "roleId",
            "columnName": "roleId",
            "affinity": "TEXT",
            "notNull": false
          },
          {
            "fieldPath": "schoolId",
            "columnName": "schoolId",
            "affinity": "TEXT",
            "notNull": false
          },
          {
            "fieldPath": "mainAccountId",
            "columnName": "mainAccountId",
            "affinity": "TEXT",
            "notNull": false
          },
          {
            "fieldPath": "firstName",
            "columnName": "firstName",
            "affinity": "TEXT",
            "notNull": false
          },
          {
            "fieldPath": "fatherName",
            "columnName": "fatherName",
            "affinity": "TEXT",
            "notNull": false
          },
          {
            "fieldPath": "grandFatherName",
            "columnName": "grandFatherName",
            "affinity": "TEXT",
            "notNull": false
          },
          {
            "fieldPath": "familyName",
            "columnName": "familyName",
            "affinity": "TEXT",
            "notNull": false
          },
          {
            "fieldPath": "nameAr",
            "columnName": "nameAr",
            "affinity": "TEXT",
            "notNull": false
          },
          {
            "fieldPath": "nameEng",
            "columnName": "nameEng",
            "affinity": "TEXT",
            "notNull": false
          },
          {
            "fieldPath": "guardianId",
            "columnName": "guardianId",
            "affinity": "TEXT",
            "notNull": false
          },
          {
            "fieldPath": "fatherMobile",
            "columnName": "fatherMobile",
            "affinity": "TEXT",
            "notNull": false
          },
          {
            "fieldPath": "fatherNumber",
            "columnName": "fatherNumber",
            "affinity": "TEXT",
            "notNull": false
          },
          {
            "fieldPath": "motherMobile",
            "columnName": "motherMobile",
            "affinity": "TEXT",
            "notNull": false
          },
          {
            "fieldPath": "dateOfBirth",
            "columnName": "dateOfBirth",
            "affinity": "TEXT",
            "notNull": false
          },
          {
            "fieldPath": "placeOfBirth",
            "columnName": "placeOfBirth",
            "affinity": "TEXT",
            "notNull": false
          },
          {
            "fieldPath": "placeOfBirthAr",
            "columnName": "placeOfBirthAr",
            "affinity": "TEXT",
            "notNull": false
          },
          {
            "fieldPath": "address",
            "columnName": "address",
            "affinity": "TEXT",
            "notNull": false
          },
          {
            "fieldPath": "phoneNumber",
            "columnName": "phoneNumber",
            "affinity": "TEXT",
            "notNull": false
          },
          {
            "fieldPath": "mobileNumber",
            "columnName": "mobileNumber",
            "affinity": "TEXT",
            "notNull": false
          },
          {
            "fieldPath": "emergencyNumberOne",
            "columnName": "emergencyNumberOne",
            "affinity": "TEXT",
            "notNull": false
          },
          {
            "fieldPath": "emergencyNumberTwo",
            "columnName": "emergencyNumberTwo",
            "affinity": "TEXT",
            "notNull": false
          },
          {
            "fieldPath": "email",
            "columnName": "email",
            "affinity": "TEXT",
            "notNull": false
          },
          {
            "fieldPath": "verifiedEmail",
            "columnName": "verifiedEmail",
            "affinity": "INTEGER",
            "notNull": true
          },
          {
            "fieldPath": "emailTwo",
            "columnName": "emailTwo",
            "affinity": "TEXT",
            "notNull": false
          },
          {
            "fieldPath": "livesWithParents",
            "columnName": "livesWithParents",
            "affinity": "INTEGER",
            "notNull": false
          },
          {
            "fieldPath": "siblingsCount",
            "columnName": "siblingsCount",
            "affinity": "TEXT",
            "notNull": false
          },
          {
            "fieldPath": "nationalityId",
            "columnName": "nationalityId",
            "affinity": "TEXT",
            "notNull": false
          },
          {
            "fieldPath": "dobHijri",
            "columnName": "dobHijri",
            "affinity": "TEXT",
            "notNull": false
          },
          {
            "fieldPath": "photoFileName",
            "columnName": "photoFileName",
            "affinity": "TEXT",
            "notNull": false
          },
          {
            "fieldPath": "themeId",
            "columnName": "themeId",
            "affinity": "TEXT",
            "notNull": false
          },
          {
            "fieldPath": "deleted",
            "columnName": "deleted",
            "affinity": "INTEGER",
            "notNull": false
          },
          {
            "fieldPath": "statusId",
            "columnName": "statusId",
            "affinity": "TEXT",
            "notNull": false
          },
          {
            "fieldPath": "lang",
            "columnName": "lang",
            "affinity": "TEXT",
            "notNull": false
          },
          {
            "fieldPath": "dateFormat",
            "columnName": "dateFormat",
            "affinity": "TEXT",
            "notNull": false
          },
          {
            "fieldPath": "loginName",
            "columnName": "loginName",
            "affinity": "TEXT",
            "notNull": false
          },
          {
            "fieldPath": "googleLoginToken",
            "columnName": "googleLoginToken",
            "affinity": "TEXT",
            "notNull": false
          },
          {
            "fieldPath": "number",
            "columnName": "number",
            "affinity": "TEXT",
            "notNull": false
          },
          {
            "fieldPath": "specialization",
            "columnName": "specialization",
            "affinity": "TEXT",
            "notNull": false
          },
          {
            "fieldPath": "isValidNumber",
            "columnName": "isValidNumber",
            "affinity": "INTEGER",
            "notNull": false
          },
          {
            "fieldPath": "passportNumber",
            "columnName": "passportNumber",
            "affinity": "TEXT",
            "notNull": false
          },
          {
            "fieldPath": "registrationNumber",
            "columnName": "registrationNumber",
            "affinity": "TEXT",
            "notNull": false
          },
          {
            "fieldPath": "oldSchoolId",
            "columnName": "oldSchoolId",
            "affinity": "TEXT",
            "notNull": false
          },
          {
            "fieldPath": "gender",
            "columnName": "gender",
            "affinity": "TEXT",
            "notNull": false
          },
          {
            "fieldPath": "blockReports",
            "columnName": "blockReports",
            "affinity": "INTEGER",
            "notNull": false
          },
          {
            "fieldPath": "mawhibaId",
            "columnName": "mawhibaId",
            "affinity": "TEXT",
            "notNull": false
          },
          {
            "fieldPath": "pioneerId",
            "columnName": "pioneerId",
            "affinity": "TEXT",
            "notNull": false
          },
          {
            "fieldPath": "cognitivePersonId",
            "columnName": "cognitivePersonId",
            "affinity": "TEXT",
            "notNull": false
          },
          {
            "fieldPath": "bio",
            "columnName": "bio",
            "affinity": "TEXT",
            "notNull": false
          },
          {
            "fieldPath": "facebookAccount",
            "columnName": "facebookAccount",
            "affinity": "TEXT",
            "notNull": false
          },
          {
            "fieldPath": "twitterAccount",
            "columnName": "twitterAccount",
            "affinity": "TEXT",
            "notNull": false
          },
          {
            "fieldPath": "googlePlusAccount",
            "columnName": "googlePlusAccount",
            "affinity": "TEXT",
            "notNull": false
          },
          {
            "fieldPath": "instagramAccount",
            "columnName": "instagramAccount",
            "affinity": "TEXT",
            "notNull": false
          },
          {
            "fieldPath": "linkedinAccount",
            "columnName": "linkedinAccount",
            "affinity": "TEXT",
            "notNull": false
          },
          {
            "fieldPath": "mobileNumberTwo",
            "columnName": "mobileNumberTwo",
            "affinity": "TEXT",
            "notNull": false
          },
          {
            "fieldPath": "educationalAdministration",
            "columnName": "educationalAdministration",
            "affinity": "TEXT",
            "notNull": false
          },
          {
            "fieldPath": "externalSchool",
            "columnName": "externalSchool",
            "affinity": "TEXT",
            "notNull": false
          },
          {
            "fieldPath": "tmpSectionId",
            "columnName": "tmpSectionId",
            "affinity": "TEXT",
            "notNull": false
          },
          {
            "fieldPath": "levelPioneerId",
            "columnName": "levelPioneerId",
            "affinity": "TEXT",
            "notNull": false
          },
          {
            "fieldPath": "sectionPioneerId",
            "columnName": "sectionPioneerId",
            "affinity": "TEXT",
            "notNull": false
          },
          {
            "fieldPath": "parentPioneerId",
            "columnName": "parentPioneerId",
            "affinity": "TEXT",
            "notNull": false
          },
          {
            "fieldPath": "thumbDone",
            "columnName": "thumbDone",
            "affinity": "TEXT",
            "notNull": false
          },
          {
            "fieldPath": "androidToken",
            "columnName": "androidToken",
            "affinity": "TEXT",
            "notNull": false
          },
          {
            "fieldPath": "iosToken",
            "columnName": "iosToken",
            "affinity": "TEXT",
            "notNull": false
          },
          {
            "fieldPath": "restrictLogin",
            "columnName": "restrictLogin",
            "affinity": "INTEGER",
            "notNull": false
          },
          {
            "fieldPath": "mawhibaProgramId",
            "columnName": "mawhibaProgramId",
            "affinity": "TEXT",
            "notNull": false
          },
          {
            "fieldPath": "lastActivityDate",
            "columnName": "lastActivityDate",
            "affinity": "TEXT",
            "notNull": false
          },
          {
            "fieldPath": "fakeData",
            "columnName": "fakeData",
            "affinity": "INTEGER",
            "notNull": false
          },
          {
            "fieldPath": "duplicated",
            "columnName": "duplicated",
            "affinity": "INTEGER",
            "notNull": false
          },
          {
            "fieldPath": "scholarshipNumber",
            "columnName": "scholarshipNumber",
            "affinity": "TEXT",
            "notNull": false
          },
          {
            "fieldPath": "allowNotification",
            "columnName": "allowNotification",
            "affinity": "INTEGER",
            "notNull": false
          },
          {
            "fieldPath": "placeOfBirthCity",
            "columnName": "placeOfBirthCity",
            "affinity": "TEXT",
            "notNull": false
          },
          {
            "fieldPath": "placeOfBirthCityOther",
            "columnName": "placeOfBirthCityOther",
            "affinity": "TEXT",
            "notNull": false
          },
          {
            "fieldPath": "fatherWorkPlace",
            "columnName": "fatherWorkPlace",
            "affinity": "TEXT",
            "notNull": false
          },
          {
            "fieldPath": "motherWorkPlace",
            "columnName": "motherWorkPlace",
            "affinity": "TEXT",
            "notNull": false
          },
          {
            "fieldPath": "fatherQualifications",
            "columnName": "fatherQualifications",
            "affinity": "TEXT",
            "notNull": false
          },
          {
            "fieldPath": "motherQualifications",
            "columnName": "motherQualifications",
            "affinity": "TEXT",
            "notNull": false
          },
          {
            "fieldPath": "motherName",
            "columnName": "motherName",
            "affinity": "TEXT",
            "notNull": false
          },
          {
            "fieldPath": "isUniversityAssociate",
            "columnName": "isUniversityAssociate",
            "affinity": "INTEGER",
            "notNull": false
          },
          {
            "fieldPath": "hasSiblingsInSchools",
            "columnName": "hasSiblingsInSchools",
            "affinity": "INTEGER",
            "notNull": false
          },
          {
            "fieldPath": "siblingNameInSchools",
            "columnName": "siblingNameInSchools",
            "affinity": "TEXT",
            "notNull": false
          },
          {
            "fieldPath": "siblingLevelId",
            "columnName": "siblingLevelId",
            "affinity": "TEXT",
            "notNull": false
          },
          {
            "fieldPath": "admissionLetter",
            "columnName": "admissionLetter",
            "affinity": "TEXT",
            "notNull": false
          },
          {
            "fieldPath": "guardianUniversityNumber",
            "columnName": "guardianUniversityNumber",
            "affinity": "TEXT",
            "notNull": false
          },
          {
            "fieldPath": "guardianUniversityAssociation",
            "columnName": "guardianUniversityAssociation",
            "affinity": "TEXT",
            "notNull": false
          },
          {
            "fieldPath": "walkThrough",
            "columnName": "walkThrough",
            "affinity": "INTEGER",
            "notNull": false
          },
          {
            "fieldPath": "insertionMethod",
            "columnName": "insertionMethod",
            "affinity": "TEXT",
            "notNull": false
          },
          {
            "fieldPath": "residenceCountry",
            "columnName": "residenceCountry",
            "affinity": "TEXT",
            "notNull": false
          },
          {
            "fieldPath": "motherNumber",
            "columnName": "motherNumber",
            "affinity": "TEXT",
            "notNull": false
          },
          {
            "fieldPath": "erpUserId",
            "columnName": "erpUserId",
            "affinity": "TEXT",
            "notNull": false
          },
          {
            "fieldPath": "backToRefererPage",
            "columnName": "backToRefererPage",
            "affinity": "INTEGER",
            "notNull": false
          },
          {
            "fieldPath": "msGraphToken",
            "columnName": "msGraphToken",
            "affinity": "TEXT",
            "notNull": false
          },
          {
            "fieldPath": "allowThemeChange",
            "columnName": "allowThemeChange",
            "affinity": "TEXT",
            "notNull": false
          },
          {
            "fieldPath": "acfCheck",
            "columnName": "acfCheck",
            "affinity": "INTEGER",
            "notNull": false
          },
          {
            "fieldPath": "subRole",
            "columnName": "subRole",
            "affinity": "TEXT",
            "notNull": false
          },
          {
            "fieldPath": "applicantDegree",
            "columnName": "applicantDegree",
            "affinity": "TEXT",
            "notNull": false
          },
          {
            "fieldPath": "applicantRecommendations",
            "columnName": "applicantRecommendations",
            "affinity": "TEXT",
            "notNull": false
          },
          {
            "fieldPath": "applicantGrade",
            "columnName": "applicantGrade",
            "affinity": "TEXT",
            "notNull": false
          },
          {
            "fieldPath": "applicantNotes",
            "columnName": "applicantNotes",
            "affinity": "TEXT",
            "notNull": false
          },
          {
            "fieldPath": "applicantRepaid",
            "columnName": "applicantRepaid",
            "affinity": "TEXT",
            "notNull": false
          },
          {
            "fieldPath": "fullName",
            "columnName": "fullName",
            "affinity": "TEXT",
            "notNull": false
          },
          {
            "fieldPath": "schoolName",
            "columnName": "schoolName",
            "affinity": "TEXT",
            "notNull": false
          },
          {
            "fieldPath": "timezone",
            "columnName": "timezone",
            "affinity": "TEXT",
            "notNull": false
          },
          {
            "fieldPath": "imageUrl",
            "columnName": "imageUrl",
            "affinity": "TEXT",
            "notNull": false
          },
          {
            "fieldPath": "image",
            "columnName": "image",
            "affinity": "TEXT",
            "notNull": false
          },
          {
            "fieldPath": "profilePicture",
            "columnName": "profilePicture",
            "affinity": "TEXT",
            "notNull": false
          },
          {
            "fieldPath": "absenceStatus",
            "columnName": "absenceStatus",
            "affinity": "TEXT",
            "notNull": false
          },
          {
            "fieldPath": "name",
            "columnName": "name",
            "affinity": "TEXT",
            "notNull": false
          },
          {
            "fieldPath": "selected",
            "columnName": "selected",
            "affinity": "INTEGER",
            "notNull": true
          },
          {
            "fieldPath": "studentLevel.id",
            "columnName": "student_level_id",
            "affinity": "TEXT",
            "notNull": false
          },
          {
            "fieldPath": "studentLevel.studentId",
            "columnName": "student_level_studentId",
            "affinity": "TEXT",
            "notNull": false
          },
          {
            "fieldPath": "studentLevel.yearId",
            "columnName": "student_level_yearId",
            "affinity": "TEXT",
            "notNull": false
          },
          {
            "fieldPath": "studentLevel.levelId",
            "columnName": "student_level_levelId",
            "affinity": "TEXT",
            "notNull": false
          },
          {
            "fieldPath": "studentLevel.status",
            "columnName": "student_level_status",
            "affinity": "TEXT",
            "notNull": false
          },
          {
            "fieldPath": "studentLevel.created",
            "columnName": "student_level_created",
            "affinity": "TEXT",
            "notNull": false
          },
          {
            "fieldPath": "studentLevel.modified",
            "columnName": "student_level_modified",
            "affinity": "TEXT",
            "notNull": false
          },
          {
            "fieldPath": "scoreInfo.userScore",
            "columnName": "score_info_userScore",
            "affinity": "TEXT",
            "notNull": false
          },
          {
            "fieldPath": "scoreInfo.currentCardTitle",
            "columnName": "score_info_currentCardTitle",
            "affinity": "TEXT",
            "notNull": false
          },
          {
            "fieldPath": "scoreInfo.currentCardColor",
            "columnName": "score_info_currentCardColor",
            "affinity": "TEXT",
            "notNull": false
          },
          {
            "fieldPath": "scoreInfo.userRatio",
            "columnName": "score_info_userRatio",
            "affinity": "REAL",
            "notNull": false
          },
          {
            "fieldPath": "scoreInfo.classIndex",
            "columnName": "score_info_classIndex",
            "affinity": "INTEGER",
            "notNull": false
          },
          {
            "fieldPath": "scoreInfo.classTitle",
            "columnName": "score_info_classTitle",
            "affinity": "TEXT",
            "notNull": false
          },
          {
            "fieldPath": "scoreInfo.classColor",
            "columnName": "score_info_classColor",
            "affinity": "TEXT",
            "notNull": false
          },
          {
            "fieldPath": "scoreInfo.uiScore",
            "columnName": "score_info_uiScore",
            "affinity": "INTEGER",
            "notNull": false
          },
          {
            "fieldPath": "currentSemester.yearId",
            "columnName": "current_semester_yearId",
            "affinity": "TEXT",
            "notNull": false
          },
          {
            "fieldPath": "currentSemester.semesterId",
            "columnName": "current_semester_semesterId",
            "affinity": "TEXT",
            "notNull": false
          }
        ],
        "primaryKey": {
          "columnNames": [
            "id"
          ],
          "autoGenerate": false
        },
        "indices": [],
        "foreignKeys": []
      },
      {
        "tableName": "recipient_user",
        "createSql": "CREATE TABLE IF NOT EXISTS `${TABLE_NAME}` (`id` TEXT NOT NULL, `schoolId` TEXT, `fullName` TEXT, `checked` INTEGER NOT NULL, PRIMARY KEY(`id`))",
        "fields": [
          {
            "fieldPath": "id",
            "columnName": "id",
            "affinity": "TEXT",
            "notNull": true
          },
          {
            "fieldPath": "schoolId",
            "columnName": "schoolId",
            "affinity": "TEXT",
            "notNull": false
          },
          {
            "fieldPath": "fullName",
            "columnName": "fullName",
            "affinity": "TEXT",
            "notNull": false
          },
          {
            "fieldPath": "checked",
            "columnName": "checked",
            "affinity": "INTEGER",
            "notNull": true
          }
        ],
        "primaryKey": {
          "columnNames": [
            "id"
          ],
          "autoGenerate": false
        },
        "indices": [],
        "foreignKeys": []
      },
      {
        "tableName": "user_last_question",
        "createSql": "CREATE TABLE IF NOT EXISTS `${TABLE_NAME}` (`questionId` TEXT NOT NULL, `userId` TEXT NOT NULL, `examId` TEXT NOT NULL, `questionNumber` TEXT NOT NULL, PRIMARY KEY(`examId`))",
        "fields": [
          {
            "fieldPath": "questionId",
            "columnName": "questionId",
            "affinity": "TEXT",
            "notNull": true
          },
          {
            "fieldPath": "userId",
            "columnName": "userId",
            "affinity": "TEXT",
            "notNull": true
          },
          {
            "fieldPath": "examId",
            "columnName": "examId",
            "affinity": "TEXT",
            "notNull": true
          },
          {
            "fieldPath": "questionNumber",
            "columnName": "questionNumber",
            "affinity": "TEXT",
            "notNull": true
          }
        ],
        "primaryKey": {
          "columnNames": [
            "examId"
          ],
          "autoGenerate": false
        },
        "indices": [],
        "foreignKeys": []
      }
    ],
    "views": [],
    "setupQueries": [
      "CREATE TABLE IF NOT EXISTS room_master_table (id INTEGER PRIMARY KEY,identity_hash TEXT)",
      "INSERT OR REPLACE INTO room_master_table (id,identity_hash) VALUES(42, '32074c0dc15c595f23d14446644ffc8d')"
    ]
  }
}